Specifying random effects structure
…
Barr, D. J. (2013). Random effects structure for testing interactions in linear mixed-effects models. Frontiers in Psychology, 4, 328.

Barr, D. J., Levy, R., Scheepers, C., & Tily, H. J. (2013). Random effects structure for confirmatory hypothesis testing: Keep it maximal. Journal of Memory and Language, 68, 255-278.

crossed web app

design from data

three way design DV ~ A * B * C + ...

count(dat1, subj_id, A, B, C)

# A tibble: 32 × 5
   subj_id A     B     C         n
     <int> <chr> <chr> <chr> <int>
 1       1 A2    B1    C1        4
 2       1 A2    B1    C2        4
 3       1 A2    B2    C1        4
 4       1 A2    B2    C2        4
 5       2 A2    B1    C1        4
 6       2 A2    B1    C2        4
 7       2 A2    B2    C1        4
 8       2 A2    B2    C2        4
 9       3 A1    B1    C1        4
10       3 A1    B1    C2        4
# … with 22 more rows
…
DV ~ A * B * C + (B * C | subj_id)

example with crossed subjects and stimuli

DV ~ A * B * C +

(? | subj_id) +

(? | item_id)

by subject

count(dat2, subj_id, A, B, C)

# A tibble: 64 × 5
   subj_id A     B     C         n
     <int> <chr> <chr> <chr> <int>
 1       1 A1    B1    C1        2
 2       1 A1    B1    C2        2
 3       1 A1    B2    C1        2
 4       1 A1    B2    C2        2
 5       1 A2    B1    C1        2
 6       1 A2    B1    C2        2
 7       1 A2    B2    C1        2
 8       1 A2    B2    C2        2
 9       2 A1    B1    C1        2
10       2 A1    B1    C2        2
# … with 54 more rows

by stimuli

count(dat2, item_id, A, B, C)

# A tibble: 128 × 5
   item_id A     B     C         n
     <int> <chr> <chr> <chr> <int>
 1       1 A1    B1    C1        1
 2       1 A1    B1    C2        1
 3       1 A1    B2    C1        1
 4       1 A1    B2    C2        1
 5       1 A2    B1    C1        1
 6       1 A2    B1    C2        1
 7       1 A2    B2    C1        1
 8       1 A2    B2    C2        1
 9       2 A1    B1    C1        1
10       2 A1    B1    C2        1
# … with 118 more rows
…
