…
<img src="07_random-effects-structure_files/figure-html/solution2-1.png" width="100%" style="display: block; margin: auto;" />

Check out the random effects structure, by subject.


```r
kbbb2 %>%
  count(subj, psource, cond)
```

```
## # A tibble: 80 × 4
##    subj  psource cond      n
##    <fct> <chr>   <chr> <int>
##  1 S01   EX      C         5
##  2 S01   EX      E         5
##  3 S02   EX      C         5
##  4 S02   EX      E         5
##  5 S04   RN      C         5
##  6 S04   RN      E         5
##  7 S05   RN      C         5
##  8 S05   RN      E         5
##  9 S06   EX      C         5
## 10 S06   EX      E         5
## # … with 70 more rows
```

Need a by-subject random slope for `cond`.

Check out the random effects structure, by stimulus.


```r
kbbb2 %>%
  count(object, psource, cond)
```

```
## # A tibble: 40 × 4
##    object psource cond      n
##    <fct>  <chr>   <chr> <int>
##  1 blkpen EX      C        10
##  2 blkpen EX      E        10
##  3 blkpen RN      C        10
##  4 blkpen RN      E        10
##  5 brush  EX      C        10
##  6 brush  EX      E        10
##  7 brush  RN      C        10
##  8 brush  RN      E        10
##  9 cards  EX      C        10
## 10 cards  EX      E        10
## # … with 30 more rows
```
…
