Chapter 6 Linear mixed-effects models | Workshop on linear mixed-effects models
…
covmx <- rbind(c(30^2, .9 * 30 * 33),
               c(.9 * 30 * 33, 33^2))

## 'rmx' should be an 18x2 matrix
rmx <- MASS::mvrnorm(18, mu = c(S0i = 0, S1i = 0),
                     Sigma = covmx)

6.2.1.2 Step 2: Make a tibble with fixed effects and random error (noise)

In the next chunk, make a table containing the values for \(\gamma_{00}\), \(\gamma_{10}\), and \(e_{ij}\).

This should be a tibble with 180 observations (18 subjects, observed over 10 days). The target table structure is shown below (your values for e_ij will vary because they are randomly generated).

## # A tibble: 180 x 5
##    Subject  Days gamma_00 gamma_10    e_ij
##    <fct>   <int>    <dbl>    <dbl>   <dbl>
##  1 1           0      310        4  28.6  
##  2 1           1      310        4 -20.0  
##  3 1           2      310        4  17.8  
##  4 1           3      310        4   0.363
##  5 1           4      310        4  26.6  
##  6 1           5      310        4  -4.06 
##  7 1           6      310        4 -18.3  
##  8 1           7      310        4   7.09 
##  9 1           8      310        4  -4.84 
## 10 1           9      310        4  38.7  
## # … with 170 more rows
…
solution

rmx_tbl <- rmx %>%
  as_tibble() %>%
  mutate(Subject = factor(1:18))

simdata <- inner_join(obs, rmx_tbl, "Subject") %>%
  mutate(Reaction = gamma_00 + S0i + (gamma_10 + S1i) * Days + e_ij) %>%
  select(Subject, Days, Reaction)

simdata

## # A tibble: 180 x 3
##    Subject  Days Reaction
##    <fct>   <int>    <dbl>
##  1 1           0     353.
##  2 1           1     342.
##  3 1           2     418.
##  4 1           3     438.
##  5 1           4     502.
##  6 1           5     509.
##  7 1           6     532.
##  8 1           7     595.
##  9 1           8     621.
## 10 1           9     702.
## # … with 170 more rows
…
