Chapter 2 Multiple Regression | Workshop on linear mixed-effects models
…
You will need to use the tidyverse package as well as the corrr package. Load in those packages and then import stars-wide.csv. You might want to look at the Data Import Cheat Sheet.

solution

library("tidyverse")
library("corrr")

stars <- read_csv("data/stars-wide.csv",
                  col_types = "iiddddddc")

## remember to look at your data before proceeding!
stars

## # A tibble: 50 × 9
##       id grade Ask_For_Help Interpretation Self_Concept Teacher  Test Worth
##    <int> <int>        <dbl>          <dbl>        <dbl>   <dbl> <dbl> <dbl>
##  1     3    18         1              1            1        1    1.25  1.06
##  2     7    15         3.25           3.18         2.29     1.8  3     2.56
##  3    12    18         2.5            1.8          1.5      2    2.88  2.5 
##  4    16    17         4              3.18         2.71     1.2  3.14  2.81
##  5    19    19         1.75           3            1.43     1.6  2.88  1.44
##  6    21    15         2              2.18         3.43     1.2  2.75  2   
##  7    23    20         1.75           1.55         1.86     2    2.12  1.44
##  8    24    22         1.75           2.45         1.43     1.2  3.12  1.38
##  9    26    22         1              1            1        1    1.38  1   
## 10    29    16         1.5            2.64         1.29     1    2.88  1.25
## # … with 40 more rows, and 1 more variable: software <chr>
…
