Chapter 1 Regression basics | Workshop on linear mixed-effects models
…
simdata <- tibble(x = sample( ??? ),
                  e = rnorm( ??? ),
                  y = 300...???)

solution

## make sure you have loaded the tidyverse [library("tidyverse")]
simdata <- tibble(x = sample(1:10, 50, replace = TRUE),
                  e = rnorm(50, 0, sqrt(100)),
                  y = 300 - 75 * x + e)

simdata

## # A tibble: 50 × 3
##        x       e     y
##    <int>   <dbl> <dbl>
##  1     9   8.71  -366.
##  2    10  -6.85  -457.
##  3    10   0.234 -450.
##  4     9  -6.32  -381.
##  5     1  -6.75   218.
##  6     9 -21.5   -397.
##  7     9   9.89  -365.
##  8     1   1.18   226.
##  9     8 -10.3   -310.
## 10     2  20.6    171.
## # … with 40 more rows
…
