Chapter 5 Variance-covariance matrices | Workshop on linear mixed-effects models
…
## use the data from the 4x4 simulation above
## (see solution for definition of simdata matrix)
simtbl <- as_tibble(simdata) %>%
  mutate(id = row_number()) # the participant id (arbitrary)

## create a table we need to join to with trial information
trials <- tibble(id = rep(1:10, each = 10),
                 condition = rep(rep(c("test", "control"), each = 5), 10))

## now combine the information
combined <- inner_join(trials, simtbl, by = "id")

combined

## # A tibble: 100 × 6
##       id condition     W     X     Y     Z
##    <int> <chr>     <dbl> <dbl> <dbl> <dbl>
##  1     1 test       6.24 -3.06  39.6 -101.
##  2     1 test       6.24 -3.06  39.6 -101.
##  3     1 test       6.24 -3.06  39.6 -101.
##  4     1 test       6.24 -3.06  39.6 -101.
##  5     1 test       6.24 -3.06  39.6 -101.
##  6     1 control    6.24 -3.06  39.6 -101.
##  7     1 control    6.24 -3.06  39.6 -101.
##  8     1 control    6.24 -3.06  39.6 -101.
##  9     1 control    6.24 -3.06  39.6 -101.
## 10     1 control    6.24 -3.06  39.6 -101.
## # … with 90 more rows
…
